# climate snap

    Code
      climate
    Output
      # A tibble: 100 x 3
         temp_anomaly  elev dist_coast
                <dbl> <dbl>      <dbl>
       1       -4.95  2290.      201. 
       2       -0.672 2506.      342. 
       3       -1.54  1806.       47.4
       4       -3.56  2242.      321. 
       5       -2.68  2576.      400. 
       6       -0.922 1202.      165. 
       7       -3.73   886.      363. 
       8        1.41  1053.      425. 
       9        3.50   277.      478. 
      10        3.00  1230.      460. 
      # i 90 more rows
