# seeds snap

    Code
      seeds
    Output
      # A tibble: 4,022 x 8
         tray_id herbicide seed_mass watering_freq soil_type germinated seed_depth
         <fct>   <fct>         <dbl> <fct>         <fct>          <int>      <dbl>
       1 1       yes           1.81  Medium        Chalky             0       4.46
       2 1       yes           0.927 Low           Loamy              0       6.57
       3 1       yes           1.70  Low           Sandy              0       5.50
       4 1       yes           1.13  Medium        Silty              0       5.81
       5 1       yes           0.599 High          Clay               0       5.98
       6 1       yes           2.09  Medium        Silty              0       5.34
       7 1       yes           1.85  Low           Clay               0       6.63
       8 1       yes           0.850 High          Clay               0       7.13
       9 1       yes           1.21  Low           Silty              0       7.49
      10 1       yes           1.96  Low           Chalky             0       7.84
      # i 4,012 more rows
      # i 1 more variable: planting_time <int>
