# starfish snap

    Code
      starfish
    Output
      # A tibble: 150 x 4
         count  temp site   year 
         <int> <dbl> <fct>  <fct>
       1     2 10.6  Site A 2011 
       2     0 11.6  Site A 2012 
       3    17  9.47 Site A 2013 
       4     0 16.3  Site A 2014 
       5     4 14.4  Site A 2015 
       6     7  9.75 Site A 2016 
       7     2 11.2  Site A 2017 
       8     0 11.1  Site A 2018 
       9     2 13.6  Site A 2019 
      10     0 11.8  Site A 2020 
      # i 140 more rows
